SDS 192 Mini-Project 2
…
library(fec20)

# Look at help file
?contributions

# Note that the contributions data frame only contains the first 1000 rows:
contributions

# A tibble: 1,000 × 15
   cmte_id amndt_ind rpt_tp transaction_pgi transaction_tp entity_tp name  city 
   <chr>   <chr>     <chr>  <chr>           <chr>          <chr>     <chr> <chr>
 1 C00694… N         Q3     P2020           24K            CCM       DONA… NEW …
 2 C00379… N         M6     P2020           24K            CCM       CLEA… WASH…
 3 C00694… N         Q3     P2020           24K            CCM       DONA… NEW …
 4 C00694… N         Q3     P2020           24K            CCM       DONA… NEW …
 5 C00694… N         Q3     P2020           24K            CCM       MCSA… TUCS…
 6 C00687… A         M7     G2020           24E            ORG       AMER… ARLI…
 7 C00585… N         M8     P2020           24K            CCM       JAIM… RIDG…
 8 C00428… N         M9     P2020           24K            CCM       GREG… HELE…
 9 C00064… N         M7     G2020           24K            CCM       FREN… LITT…
10 C00694… N         Q3     P2020           24K            CCM       JOHN… FARM…
# ℹ 990 more rows
# ℹ 7 more variables: state <chr>, zip_code <chr>, transaction_dt <date>,
#   transaction_amt <dbl>, other_id <chr>, cand_id <chr>, tran_id <chr>
…
ℹ Use `spec()` to retrieve the full column specification for this data.
ℹ Specify the column types or set `show_col_types = FALSE` to quiet this message.

# Now contributions has full 887,823 rows
contributions

# A tibble: 887,823 × 15
   cmte_id amndt_ind rpt_tp transaction_pgi transaction_tp entity_tp name  city 
   <chr>   <chr>     <chr>  <chr>           <chr>          <chr>     <chr> <chr>
 1 C00567… T         TER    P2020           24K            PAC       TED … GAIN…
 2 C00104… A         TER    G2020           24K            CCM       TEAM… COLU…
 3 C00104… A         TER    P2022           24K            CCM       TIM … CHAR…
 4 C00104… A         TER    P2020           24K            CCM       FRIE… COLU…
 5 C00688… T         TER    G2018           24E            ORG       JACK… JACK…
 6 C00414… N         M2     P               24K            CCM       FRIE… ALEX…
 7 C00325… N         M2     P2020           24K            CCM       EMME… ANOKA
 8 C00366… N         M2     P2020           24K            CCM       MALO… NEW …
 9 C00366… N         M2     P2020           24K            CCM       MCHE… GAST…
10 C00366… N         M2     P2020           24K            CCM       CITI… LONG…
# ℹ 887,813 more rows
# ℹ 7 more variables: state <chr>, zip_code <chr>, transaction_dt <date>,
#   transaction_amt <dbl>, other_id <chr>, cand_id <chr>, tran_id <chr>
…
